%YAML 1.1
%TAG !u! tag:unity3d.com,2011:
--- !u!1001 &100100000
Prefab:
  m_ObjectHideFlags: 1
  serializedVersion: 2
  m_Modification:
    m_TransformParent: {fileID: 0}
    m_Modifications: []
    m_RemovedComponents: []
  m_ParentPrefab: {fileID: 0}
  m_RootGameObject: {fileID: 1019020677098332}
  m_IsPrefabParent: 1
--- !u!1 &1019020677098332
GameObject:
  m_ObjectHideFlags: 0
  m_PrefabParentObject: {fileID: 0}
  m_PrefabInternal: {fileID: 100100000}
  serializedVersion: 5
  m_Component:
  - component: {fileID: 4561189201747732}
  - component: {fileID: 114820121572159754}
  m_Layer: 11
  m_Name: '[ Node ]'
  m_TagString: Untagged
  m_Icon: {fileID: 0}
  m_NavMeshLayer: 0
  m_StaticEditorFlags: 0
  m_IsActive: 1
--- !u!4 &4561189201747732
Transform:
  m_ObjectHideFlags: 1
  m_PrefabParentObject: {fileID: 0}
  m_PrefabInternal: {fileID: 100100000}
  m_GameObject: {fileID: 1019020677098332}
  m_LocalRotation: {x: -0, y: 0.9998785, z: -0, w: -0.015589613}
  m_LocalPosition: {x: -448.05, y: 19.58, z: -478.48}
  m_LocalScale: {x: 1, y: 1, z: 1}
  m_Children: []
  m_Father: {fileID: 0}
  m_RootOrder: 0
  m_LocalEulerAnglesHint: {x: 0, y: 181.786, z: 0}
--- !u!114 &114820121572159754
MonoBehaviour:
  m_ObjectHideFlags: 1
  m_PrefabParentObject: {fileID: 0}
  m_PrefabInternal: {fileID: 100100000}
  m_GameObject: {fileID: 1019020677098332}
  m_Enabled: 1
  m_EditorHideFlags: 0
  m_Script: {fileID: 11500000, guid: 728368ae2d4397d42a36e8bbee55cb4e, type: 3}
  m_Name: 
  m_EditorClassIdentifier: 
  StopAtNode: 0
  SpawnAble: 0
  SpawnRotation: {x: 0, y: 0, z: 0, w: 0}
  SlowDownOnApproch: 1
  brakeAtNode: 0
  BreakTime: 0
  slowDownspeed: 1
